\relax 
\citation{schafer}
\citation{schafer}
\citation{movielens}
\citation{lastfm}
\citation{jester}
\citation{book}
\citation{griffiths}
\citation{schein}
\citation{kim1}
\@writefile{toc}{\contentsline {section}{\numberline {1.1}Problem}{1}}
\@writefile{toc}{\contentsline {section}{\numberline {1.2}Objectives}{1}}
\@writefile{toc}{\contentsline {subsection}{\numberline {1.2.1}Datasets}{1}}
\@writefile{toc}{\contentsline {subsection}{\numberline {1.2.2}Partial solutions}{1}}
\citation{park}
\citation{melville}
\citation{kim2}
\citation{schafer}
\bibdata{mybib}
\@writefile{toc}{\contentsline {section}{\numberline {1.3}Methodology}{2}}
\@writefile{toc}{\contentsline {section}{\numberline {1.4}Resources}{2}}
\@writefile{toc}{\contentsline {section}{\numberline {1.5}Ethical Considerations}{2}}
\@writefile{toc}{\contentsline {section}{\numberline {1.6}Timetable}{2}}
\bibcite{griffiths}{1}
\bibcite{jester}{2}
\bibcite{kim1}{3}
\bibcite{lastfm}{4}
\bibcite{kim2}{5}
\bibcite{melville}{6}
\bibcite{park}{7}
\bibcite{movielens}{8}
\bibcite{schafer}{9}
\bibcite{schein}{10}
\bibcite{book}{11}
\bibstyle{plain}
