\relax 
\providecommand\hyper@newdestlabel[2]{}
\providecommand\HyperFirstAtBeginDocument{\AtBeginDocument}
\HyperFirstAtBeginDocument{\ifx\hyper@anchor\@undefined
\global\let\oldcontentsline\contentsline
\gdef\contentsline#1#2#3#4{\oldcontentsline{#1}{#2}{#3}}
\global\let\oldnewlabel\newlabel
\gdef\newlabel#1#2{\newlabelxx{#1}#2}
\gdef\newlabelxx#1#2#3#4#5#6{\oldnewlabel{#1}{{#2}{#3}}}
\AtEndDocument{\ifx\hyper@anchor\@undefined
\let\contentsline\oldcontentsline
\let\newlabel\oldnewlabel
\fi}
\fi}
\global\let\hyper@last\relax 
\gdef\HyperFirstAtBeginDocument#1{#1}
\providecommand\HyField@AuxAddToFields[1]{}
\providecommand\HyField@AuxAddToCoFields[2]{}
\citation{schafer}
\citation{datamining}
\@writefile{toc}{\contentsline {chapter}{\numberline {1}Introduction}{5}{chapter.1}}
\@writefile{lof}{\addvspace {10\p@ }}
\@writefile{lot}{\addvspace {10\p@ }}
\@writefile{toc}{\contentsline {section}{\numberline {1.1}Background}{5}{section.1.1}}
\citation{datamining}
\citation{schafer}
\@writefile{lof}{\contentsline {figure}{\numberline {1.1}{\ignorespaces An example of a ratings matrix\nobreakspace  {}\cite  {datamining}\relax }}{6}{figure.1.1}}
\newlabel{fig:ratingMatrix}{{1.1}{6}{An example of a ratings matrix~\cite {datamining}\relax }{figure.1.1}{}}
\@writefile{toc}{\contentsline {section}{\numberline {1.2}Motivation}{6}{section.1.2}}
\@writefile{toc}{\contentsline {section}{\numberline {1.3}Problem}{7}{section.1.3}}
\newlabel{cosineSimilarity}{{1.1}{7}{Problem}{equation.1.3.1}{}}
\@writefile{toc}{\contentsline {section}{\numberline {1.4}Proposed Solution}{7}{section.1.4}}
\@writefile{toc}{\contentsline {section}{\numberline {1.5}Scope and Limitations}{7}{section.1.5}}
\citation{schafer}
\citation{schafer}
\citation{schafer}
\citation{resnick}
\citation{schafer}
\citation{schafer}
\citation{sarwar}
\citation{schafer}
\citation{adomavicius}
\@writefile{toc}{\contentsline {chapter}{\numberline {2}Literature Review}{9}{chapter.2}}
\@writefile{lof}{\addvspace {10\p@ }}
\@writefile{lot}{\addvspace {10\p@ }}
\@writefile{toc}{\contentsline {section}{\numberline {2.1}Collaborative Filtering}{9}{section.2.1}}
\@writefile{toc}{\contentsline {section}{\numberline {2.2}Cold-start}{9}{section.2.2}}
\citation{melville}
\citation{park}
\citation{schein}
\citation{markov}
\citation{regression}
\citation{rules}
\citation{hybrid}
\@writefile{toc}{\contentsline {section}{\numberline {2.3}Algorithms for the new-item problem}{10}{section.2.3}}
\citation{griffiths}
\citation{herlocker}
\citation{comparison1,comparison2,comparison3}
\citation{hauger}
\citation{herlocker}
\citation{schafer}
\@writefile{toc}{\contentsline {section}{\numberline {2.4}Comparing algorithms}{11}{section.2.4}}
\@writefile{toc}{\contentsline {section}{\numberline {2.5}Evaluation}{11}{section.2.5}}
\citation{movielens}
\@writefile{toc}{\contentsline {chapter}{\numberline {3}Datasets}{12}{chapter.3}}
\@writefile{lof}{\addvspace {10\p@ }}
\@writefile{lot}{\addvspace {10\p@ }}
\@writefile{toc}{\contentsline {section}{\numberline {3.1}MovieLens}{12}{section.3.1}}
\@writefile{toc}{\contentsline {section}{\numberline {3.2}Hummingbird}{12}{section.3.2}}
\newlabel{ratingMatrix}{{3.2}{13}{Hummingbird}{section.3.2}{}}
\citation{griffiths}
\citation{hybrid}
\citation{park}
\@writefile{toc}{\contentsline {chapter}{\numberline {4}Project outline}{14}{chapter.4}}
\@writefile{lof}{\addvspace {10\p@ }}
\@writefile{lot}{\addvspace {10\p@ }}
\@writefile{toc}{\contentsline {section}{\numberline {4.1}Algorithms selected}{14}{section.4.1}}
\@writefile{toc}{\contentsline {subsection}{\numberline {4.1.1}A Market-based Approach to Address the New Item Problem}{14}{subsection.4.1.1}}
\@writefile{toc}{\contentsline {subsection}{\numberline {4.1.2}An Approach for Combining Content-based and Collaborative Filters}{14}{subsection.4.1.2}}
\@writefile{toc}{\contentsline {subsection}{\numberline {4.1.3}Na\IeC {\"\i }ve Filterbots for Robust Cold-Start Recommendations}{14}{subsection.4.1.3}}
\@writefile{toc}{\contentsline {section}{\numberline {4.2}Evaluation Process}{15}{section.4.2}}
\@writefile{toc}{\contentsline {subsection}{\numberline {4.2.1}Generating new-items}{15}{subsection.4.2.1}}
\@writefile{toc}{\contentsline {subsection}{\numberline {4.2.2}Item-based collaborative filtering}{15}{subsection.4.2.2}}
\newlabel{ratingPrediction}{{4.1}{15}{Item-based collaborative filtering}{equation.4.2.1}{}}
\newlabel{normalisation}{{4.2}{15}{Item-based collaborative filtering}{equation.4.2.2}{}}
\citation{herlocker}
\newlabel{denormalisation}{{4.3}{16}{Item-based collaborative filtering}{equation.4.2.3}{}}
\@writefile{toc}{\contentsline {section}{\numberline {4.3}Evaluation metric}{16}{section.4.3}}
\newlabel{MAE}{{4.4}{16}{Evaluation metric}{equation.4.3.4}{}}
\@writefile{toc}{\contentsline {chapter}{\numberline {5}Market-based algorithm}{17}{chapter.5}}
\@writefile{lof}{\addvspace {10\p@ }}
\@writefile{lot}{\addvspace {10\p@ }}
\@writefile{toc}{\contentsline {section}{\numberline {5.1}Overview}{17}{section.5.1}}
\@writefile{toc}{\contentsline {section}{\numberline {5.2}Influence Network}{17}{section.5.2}}
\@writefile{toc}{\contentsline {section}{\numberline {5.3}Seed set}{17}{section.5.3}}
\@writefile{toc}{\contentsline {section}{\numberline {5.4}Rate of uptake}{18}{section.5.4}}
\newlabel{rateOfUptake}{{5.1}{18}{Rate of uptake}{equation.5.4.1}{}}
\@writefile{toc}{\contentsline {section}{\numberline {5.5}Algorithm}{18}{section.5.5}}
\@writefile{toc}{\contentsline {subsection}{\numberline {5.5.1}Item assignment}{18}{subsection.5.5.1}}
\newlabel{payment}{{5.2}{18}{Item assignment}{equation.5.5.2}{}}
\@writefile{toc}{\contentsline {subsection}{\numberline {5.5.2}Item selection}{18}{subsection.5.5.2}}
\citation{griffiths}
\@writefile{toc}{\contentsline {subsection}{\numberline {5.5.3}Update}{19}{subsection.5.5.3}}
\@writefile{toc}{\contentsline {section}{\numberline {5.6}Implementation Details}{19}{section.5.6}}
\newlabel{uptakeProbability}{{5.3}{19}{Implementation Details}{equation.5.6.3}{}}
\newlabel{normalisationConstant}{{5.4}{19}{Implementation Details}{equation.5.6.4}{}}
\newlabel{simCycle}{{5.5}{19}{Implementation Details}{equation.5.6.5}{}}
\@writefile{toc}{\contentsline {chapter}{\numberline {6}Clustering algorithm}{20}{chapter.6}}
\@writefile{lof}{\addvspace {10\p@ }}
\@writefile{lot}{\addvspace {10\p@ }}
\@writefile{toc}{\contentsline {section}{\numberline {6.1}Overview}{20}{section.6.1}}
\@writefile{toc}{\contentsline {section}{\numberline {6.2}Clustering Technique}{20}{section.6.2}}
\newlabel{clusterProbability}{{6.1}{20}{Clustering Technique}{equation.6.2.1}{}}
\@writefile{toc}{\contentsline {section}{\numberline {6.3}Group ratings matrix}{20}{section.6.3}}
\@writefile{toc}{\contentsline {section}{\numberline {6.4}Algorithm}{21}{section.6.4}}
\@writefile{toc}{\contentsline {section}{\numberline {6.5}Implementation Details}{21}{section.6.5}}
\citation{criticBot}
\@writefile{toc}{\contentsline {chapter}{\numberline {7}Na\IeC {\"\i }ve Filterbots}{22}{chapter.7}}
\@writefile{lof}{\addvspace {10\p@ }}
\@writefile{lot}{\addvspace {10\p@ }}
\@writefile{toc}{\contentsline {section}{\numberline {7.1}Overview}{22}{section.7.1}}
\@writefile{toc}{\contentsline {section}{\numberline {7.2}Filterbots}{22}{section.7.2}}
\@writefile{toc}{\contentsline {subsection}{\numberline {7.2.1}Critic-bot}{22}{subsection.7.2.1}}
\@writefile{toc}{\contentsline {subsection}{\numberline {7.2.2}Award-bot}{22}{subsection.7.2.2}}
\citation{actorBot}
\citation{directorBot}
\citation{yahoo}
\@writefile{toc}{\contentsline {subsection}{\numberline {7.2.3}Actor-bot}{23}{subsection.7.2.3}}
\@writefile{toc}{\contentsline {subsection}{\numberline {7.2.4}Director-bot}{23}{subsection.7.2.4}}
\@writefile{toc}{\contentsline {subsection}{\numberline {7.2.5}Genre-bot}{23}{subsection.7.2.5}}
\@writefile{toc}{\contentsline {section}{\numberline {7.3}Algorithm}{23}{section.7.3}}
\@writefile{toc}{\contentsline {section}{\numberline {7.4}Implementation Details}{23}{section.7.4}}
\@writefile{toc}{\contentsline {chapter}{\numberline {8}Combining algorithms - Clustering and Na\IeC {\"\i }ve Filterbots}{25}{chapter.8}}
\@writefile{lof}{\addvspace {10\p@ }}
\@writefile{lot}{\addvspace {10\p@ }}
\@writefile{toc}{\contentsline {section}{\numberline {8.1}Motivation}{25}{section.8.1}}
\@writefile{toc}{\contentsline {section}{\numberline {8.2}Combination process}{25}{section.8.2}}
\newlabel{linearCombination}{{8.1}{25}{Combination process}{equation.8.2.1}{}}
\@writefile{toc}{\contentsline {section}{\numberline {8.3}Implementation Details}{25}{section.8.3}}
\@writefile{toc}{\contentsline {chapter}{\numberline {9}Algorithm Results and Comparison}{27}{chapter.9}}
\@writefile{lof}{\addvspace {10\p@ }}
\@writefile{lot}{\addvspace {10\p@ }}
\@writefile{toc}{\contentsline {section}{\numberline {9.1}Market-based algorithm}{27}{section.9.1}}
\newlabel{surfaceMovieLens}{{9.1}{27}{Market-based algorithm}{section.9.1}{}}
\newlabel{neighbourMovieLens}{{9.1}{28}{Market-based algorithm}{section.9.1}{}}
\newlabel{surfaceHummingbird}{{9.1}{28}{Market-based algorithm}{section.9.1}{}}
\newlabel{neighbourHummingbird}{{9.1}{29}{Market-based algorithm}{section.9.1}{}}
\@writefile{toc}{\contentsline {section}{\numberline {9.2}Clustering algorithm}{29}{section.9.2}}
\newlabel{neighbourClusteringMovieLens}{{9.2}{29}{Clustering algorithm}{section.9.2}{}}
\newlabel{neighbourClusteringHummingbird}{{9.2}{30}{Clustering algorithm}{section.9.2}{}}
\@writefile{toc}{\contentsline {section}{\numberline {9.3}Na\IeC {\"\i }ve Filterbots}{30}{section.9.3}}
\newlabel{filterbotsMAE}{{9.3}{30}{Naïve Filterbots}{section.9.3}{}}
\@writefile{toc}{\contentsline {section}{\numberline {9.4}Combined method}{30}{section.9.4}}
\newlabel{combinedMovieLens}{{9.4}{31}{Combined method}{section.9.4}{}}
\newlabel{combinedHummingbird}{{9.4}{31}{Combined method}{section.9.4}{}}
\@writefile{toc}{\contentsline {section}{\numberline {9.5}Comparison}{32}{section.9.5}}
\@writefile{toc}{\contentsline {subsection}{\numberline {9.5.1}MovieLens}{32}{subsection.9.5.1}}
\newlabel{movieLensComparison}{{9.5.1}{32}{MovieLens}{subsection.9.5.1}{}}
\@writefile{toc}{\contentsline {subsection}{\numberline {9.5.2}Hummingbird}{32}{subsection.9.5.2}}
\newlabel{hummingbirdComparison}{{9.5.2}{32}{Hummingbird}{subsection.9.5.2}{}}
\@writefile{toc}{\contentsline {section}{\numberline {9.6}Summary}{33}{section.9.6}}
\@writefile{toc}{\contentsline {chapter}{\numberline {10}Project Management}{35}{chapter.10}}
\@writefile{lof}{\addvspace {10\p@ }}
\@writefile{lot}{\addvspace {10\p@ }}
\@writefile{toc}{\contentsline {section}{\numberline {10.1}Methodology}{35}{section.10.1}}
\newlabel{projectBreakdown}{{10.1}{35}{Methodology}{section.10.1}{}}
\@writefile{toc}{\contentsline {subsection}{\numberline {10.1.1}Algorithm Research}{35}{subsection.10.1.1}}
\@writefile{toc}{\contentsline {subsection}{\numberline {10.1.2}Dataset Research}{35}{subsection.10.1.2}}
\@writefile{toc}{\contentsline {subsection}{\numberline {10.1.3}Basic CF Implementation}{36}{subsection.10.1.3}}
\@writefile{toc}{\contentsline {subsection}{\numberline {10.1.4}Initial Dataset Preparation}{36}{subsection.10.1.4}}
\@writefile{toc}{\contentsline {subsection}{\numberline {10.1.5}Algorithms Implementation}{36}{subsection.10.1.5}}
\@writefile{toc}{\contentsline {subsection}{\numberline {10.1.6}Explore Algorithm Extensions}{36}{subsection.10.1.6}}
\@writefile{toc}{\contentsline {subsection}{\numberline {10.1.7}Prepare Additional Dataset}{36}{subsection.10.1.7}}
\@writefile{toc}{\contentsline {subsection}{\numberline {10.1.8}Compare performance of algorithms}{37}{subsection.10.1.8}}
\@writefile{toc}{\contentsline {section}{\numberline {10.2}Project Timeline}{37}{section.10.2}}
\newlabel{projectBreakdown}{{10.2}{37}{Project Timeline}{section.10.2}{}}
\@writefile{toc}{\contentsline {section}{\numberline {10.3}Hardware}{37}{section.10.3}}
\@writefile{toc}{\contentsline {section}{\numberline {10.4}Revision Control and Backup}{37}{section.10.4}}
\@writefile{toc}{\contentsline {chapter}{\numberline {11}Legal, Social and Professional Issues}{39}{chapter.11}}
\@writefile{lof}{\addvspace {10\p@ }}
\@writefile{lot}{\addvspace {10\p@ }}
\@writefile{toc}{\contentsline {chapter}{\numberline {12}Conclusion}{40}{chapter.12}}
\@writefile{lof}{\addvspace {10\p@ }}
\@writefile{lot}{\addvspace {10\p@ }}
\@writefile{toc}{\contentsline {section}{\numberline {12.1}Goals}{40}{section.12.1}}
\@writefile{toc}{\contentsline {section}{\numberline {12.2}Results}{40}{section.12.2}}
\@writefile{toc}{\contentsline {section}{\numberline {12.3}Achievements}{40}{section.12.3}}
\@writefile{toc}{\contentsline {section}{\numberline {12.4}Difficulties encountered}{41}{section.12.4}}
\@writefile{toc}{\contentsline {section}{\numberline {12.5}Lessons Learnt}{41}{section.12.5}}
\@writefile{toc}{\contentsline {section}{\numberline {12.6}Future Work}{42}{section.12.6}}
\@writefile{toc}{\contentsline {chapter}{\numberline {13}Acknowledgements}{43}{chapter.13}}
\@writefile{lof}{\addvspace {10\p@ }}
\@writefile{lot}{\addvspace {10\p@ }}
\@writefile{toc}{\contentsline {section}{\numberline {13.1}Software}{43}{section.13.1}}
\@writefile{toc}{\contentsline {section}{\numberline {13.2}Hardware}{43}{section.13.2}}
\@writefile{toc}{\contentsline {section}{\numberline {13.3}People}{43}{section.13.3}}
\citation{*}
\bibdata{mybib}
\bibcite{adomavicius}{1}
\bibcite{directorBot}{2}
\bibcite{griffiths}{3}
\bibcite{markov}{4}
\bibcite{comparison1}{5}
\bibcite{comparison2}{6}
\bibcite{lucy}{7}
\bibcite{actorBot}{8}
\bibcite{hauger}{9}
\bibcite{herlocker}{10}
\bibcite{wekabook}{11}
\bibcite{yahoo}{12}
\bibcite{comparison3}{13}
\bibcite{rules}{14}
\bibcite{hybrid}{15}
\bibcite{melville}{16}
\bibcite{regression}{17}
\bibcite{park}{18}
\bibcite{criticBot}{19}
\bibcite{movielens}{20}
\bibcite{resnick}{21}
\bibcite{sarwar}{22}
\bibcite{schafer}{23}
\bibcite{schein}{24}
\bibcite{datamining}{25}
\bibstyle{plain}
\@writefile{toc}{\contentsline {chapter}{Appendices}{47}{section*.3}}
\@writefile{toc}{\setcounter {tocdepth}{0}}
\@writefile{toc}{\contentsline {chapter}{\numberline {A}On the Disk}{48}{Appendix.a.A}}
\@writefile{lof}{\addvspace {10\p@ }}
\@writefile{lot}{\addvspace {10\p@ }}
\@writefile{toc}{\contentsline {chapter}{\numberline {B}Algorithm Results}{49}{Appendix.a.B}}
\@writefile{lof}{\addvspace {10\p@ }}
\@writefile{lot}{\addvspace {10\p@ }}
\@writefile{toc}{\contentsline {chapter}{\numberline {C}Project Specification}{50}{Appendix.a.C}}
\@writefile{lof}{\addvspace {10\p@ }}
\@writefile{lot}{\addvspace {10\p@ }}
\@writefile{toc}{\contentsline {chapter}{\numberline {D}Progress Report}{51}{Appendix.a.D}}
\@writefile{lof}{\addvspace {10\p@ }}
\@writefile{lot}{\addvspace {10\p@ }}
