\relax 
\citation{schafer}
\citation{comparative}
\citation{evaluation}
\citation{lucy}
\citation{griffiths}
\citation{kim1}
\@writefile{toc}{\contentsline {section}{\numberline {1.1}Introduction}{2}}
\@writefile{toc}{\contentsline {section}{\numberline {1.2}Background Research}{2}}
\@writefile{toc}{\contentsline {section}{\numberline {1.3}Overview and Progress}{2}}
\@writefile{toc}{\contentsline {subsection}{\numberline {1.3.1}Objective Progress}{2}}
\citation{wekabook}
\citation{weka}
\citation{datamining}
\citation{griffiths}
\@writefile{toc}{\contentsline {subsection}{\numberline {1.3.2}Overview}{3}}
\@writefile{toc}{\contentsline {section}{\numberline {1.4}Appraisal}{3}}
\@writefile{toc}{\contentsline {section}{\numberline {1.5}Revised Timetable}{3}}
\citation{movielens}
\@writefile{toc}{\contentsline {section}{\numberline {1.6}Ethical Considerations}{4}}
\@writefile{toc}{\contentsline {section}{\numberline {1.7}Project Management}{4}}
\bibdata{mybib}
\bibcite{griffiths}{1}
\bibcite{lucy}{2}
\bibcite{evaluation}{3}
\bibcite{wekabook}{4}
\bibcite{kim1}{5}
\bibcite{comparative}{6}
\bibcite{weka}{7}
\bibcite{movielens}{8}
\bibcite{schafer}{9}
\bibcite{datamining}{10}
\bibstyle{plain}
\@writefile{toc}{\contentsline {section}{\numberline {1.8}Appendix - Project Specification}{6}}
