\contentsline {section}{\numberline {1.1}Introduction}{2}
\contentsline {section}{\numberline {1.2}Background Research}{2}
\contentsline {section}{\numberline {1.3}Overview and Progress}{2}
\contentsline {subsection}{\numberline {1.3.1}Objective Progress}{2}
\contentsline {subsection}{\numberline {1.3.2}Overview}{3}
\contentsline {section}{\numberline {1.4}Appraisal}{3}
\contentsline {section}{\numberline {1.5}Revised Timetable}{3}
\contentsline {section}{\numberline {1.6}Ethical Considerations}{4}
\contentsline {section}{\numberline {1.7}Project Management}{4}
\contentsline {section}{\numberline {1.8}Appendix - Project Specification}{6}
